<?xml version="1.0" encoding="UTF-8"?>
<svg width="21px" height="15px" viewBox="0 0 21 15" version="1.1" xmlns="http://www.w3.org/2000/svg"
     xmlns:xlink="http://www.w3.org/1999/xlink">
    <!-- Generator: sketchtool 46 (44423) - http://www.bohemiancoding.com/sketch -->
    <title>LGBT</title>
    <desc>Created with sketchtool.</desc>
    <defs>
        <linearGradient x1="50%" y1="0%" x2="50%" y2="100%" id="linearGradient-1">
            <stop stop-color="#FFFFFF" offset="0%"></stop>
            <stop stop-color="#F0F0F0" offset="100%"></stop>
        </linearGradient>
        <linearGradient x1="50%" y1="0%" x2="50%" y2="100%" id="linearGradient-2">
            <stop stop-color="#F71E24" offset="0%"></stop>
            <stop stop-color="#FB141B" offset="100%"></stop>
        </linearGradient>
        <linearGradient x1="50%" y1="0%" x2="50%" y2="100%" id="linearGradient-3">
            <stop stop-color="#FB6C2C" offset="0%"></stop>
            <stop stop-color="#FC6420" offset="100%"></stop>
        </linearGradient>
        <linearGradient x1="50%" y1="0%" x2="50%" y2="100%" id="linearGradient-4">
            <stop stop-color="#FDFC42" offset="0%"></stop>
            <stop stop-color="#FFFD38" offset="100%"></stop>
        </linearGradient>
        <linearGradient x1="50%" y1="0%" x2="50%" y2="100%" id="linearGradient-5">
            <stop stop-color="#238F35" offset="0%"></stop>
            <stop stop-color="#1C7E2C" offset="100%"></stop>
        </linearGradient>
        <linearGradient x1="50%" y1="0%" x2="50%" y2="100%" id="linearGradient-6">
            <stop stop-color="#0F62FA" offset="0%"></stop>
            <stop stop-color="#0059FC" offset="100%"></stop>
        </linearGradient>
    </defs>
    <g id="Symbols" stroke="none" stroke-width="1" fill="none" fill-rule="evenodd">
        <g id="LGBT">
            <rect id="FlagBackground" fill="url(#linearGradient-1)" x="0" y="0" width="21" height="15"></rect>
            <rect id="Mask-Copy" fill="url(#linearGradient-2)" x="0" y="0" width="21" height="3"></rect>
            <rect id="Mask-Copy-2" fill="url(#linearGradient-3)" x="0" y="3" width="21" height="3"></rect>
            <rect id="Mask-Copy-3" fill="url(#linearGradient-4)" x="0" y="6" width="21" height="3"></rect>
            <rect id="Mask-Copy-4" fill="url(#linearGradient-5)" x="0" y="9" width="21" height="3"></rect>
            <rect id="Mask-Copy-5" fill="url(#linearGradient-6)" x="0" y="12" width="21" height="3"></rect>
        </g>
    </g>
</svg>
