<?xml version="1.0" encoding="UTF-8"?>
<svg width="21px" height="15px" viewBox="0 0 21 15" version="1.1" xmlns="http://www.w3.org/2000/svg"
     xmlns:xlink="http://www.w3.org/1999/xlink">
    <!-- Generator: sketchtool 46 (44423) - http://www.bohemiancoding.com/sketch -->
    <title>ME</title>
    <desc>Created with sketchtool.</desc>
    <defs>
        <linearGradient x1="50%" y1="0%" x2="50%" y2="100%" id="linearGradient-1">
            <stop stop-color="#FFFFFF" offset="0%"></stop>
            <stop stop-color="#F0F0F0" offset="100%"></stop>
        </linearGradient>
        <linearGradient x1="50%" y1="0%" x2="50%" y2="100%" id="linearGradient-2">
            <stop stop-color="#E6BE53" offset="0%"></stop>
            <stop stop-color="#D3AD46" offset="100%"></stop>
        </linearGradient>
        <linearGradient x1="50%" y1="0%" x2="50%" y2="100%" id="linearGradient-3">
            <stop stop-color="#E01826" offset="0%"></stop>
            <stop stop-color="#C30A17" offset="100%"></stop>
        </linearGradient>
    </defs>
    <g id="Symbols" stroke="none" stroke-width="1" fill="none" fill-rule="evenodd">
        <g id="ME">
            <rect id="FlagBackground" fill="url(#linearGradient-1)" x="0" y="0" width="21" height="15"></rect>
            <rect id="Mask-Copy" fill="url(#linearGradient-2)" x="0" y="0" width="21" height="15"></rect>
            <rect id="Rectangle-2" fill="url(#linearGradient-3)" x="1" y="1" width="19" height="13" rx="0.75"></rect>
            <path d="M10.1473122,5.14731216 C10.3420963,5.34209628 10.6582031,5.34179688 10.8526878,5.14731216 L10.6473122,5.35268784 L11.6502485,4.34975147 C11.8434109,4.15658907 12.1928101,4.09640503 12.453186,4.22659302 L12.546814,4.27340698 C12.7971017,4.39855085 12.8417969,4.65820313 12.6473122,4.85268784 L12.8526878,4.64731216 L11.8497515,5.65024853 C11.6565891,5.84341093 11.596405,6.19281006 11.726593,6.45318604 L11.773407,6.54681396 C11.8985509,6.7971017 12,7.22659302 12,7.5 L12,7 C12,7.27614237 12.1928101,7.40359497 12.453186,7.27340698 L12.546814,7.22659302 C12.7971017,7.10144915 12.8417969,6.84179688 12.6473122,6.64731216 L12.8526878,6.85268784 C12.6579037,6.65790372 12.6582031,6.34179688 12.8526878,6.14731216 L12.6473122,6.35268784 C12.8420963,6.15790372 13.096405,5.80718994 13.226593,5.54681396 L13.273407,5.45318604 C13.3985509,5.2028983 13.5535088,4.78596497 13.6210361,4.51585579 L13.8789639,3.48414421 C13.9458103,3.21675875 14.1384277,3.18457031 14.3035474,3.40472984 L15.1964526,4.59527016 C15.3640972,4.81879628 15.5,5.21403503 15.5,5.50468445 L15.5,6.49531555 C15.5,6.77404508 15.403595,7.19281006 15.273407,7.45318604 L15.226593,7.54681396 C15.1014491,7.7971017 14.84375,8.15625 14.6502485,8.34975147 L14.3497515,8.65024853 C14.1565891,8.84341093 13.8071899,9.09640503 13.546814,9.22659302 L13.453186,9.27340698 C13.2028983,9.39855085 12.7680664,9.5 12.5,9.5 C12.2238576,9.5 12.1928101,9.59640503 12.453186,9.72659302 L12.546814,9.77340698 C12.7971017,9.89855085 13.1582031,10.1582031 13.3526878,10.3526878 L13.1473122,10.1473122 C13.3420963,10.3420963 13.6582031,10.3417969 13.8526878,10.1473122 L13.6473122,10.3526878 C13.8420963,10.1579037 14.1582031,10.1582031 14.3526878,10.3526878 L14.1473122,10.1473122 C14.3420963,10.3420963 14.403595,10.6928101 14.273407,10.953186 L14.226593,11.046814 C14.1014491,11.2971017 13.7680664,11.5 13.5,11.5 C13.2238576,11.5 12.8071899,11.403595 12.546814,11.273407 L12.453186,11.226593 C12.2028983,11.1014491 11.903595,10.8071899 11.773407,10.546814 L11.726593,10.453186 C11.6014491,10.2028983 11.3417969,10.1582031 11.1473122,10.3526878 L11.3526878,10.1473122 C11.1579037,10.3420963 11.1226196,10.6839294 11.2732544,10.9098816 L11.7267456,11.5901184 C11.8776598,11.8164898 11.8160706,12.1226196 11.5901184,12.2732544 L10.9098816,12.7267456 C10.6835102,12.8776598 10.3160706,12.8773804 10.0901184,12.7267456 L9.40988159,12.2732544 C9.18351024,12.1223402 9.12261963,11.8160706 9.27325439,11.5901184 L9.72674561,10.9098816 C9.87765984,10.6835102 9.84179688,10.3417969 9.64731216,10.1473122 L9.85268784,10.3526878 C9.65790372,10.1579037 9.40359497,10.1928101 9.27340698,10.453186 L9.22659302,10.546814 C9.10144915,10.7971017 8.80718994,11.096405 8.54681396,11.226593 L8.45318604,11.273407 C8.2028983,11.3985509 7.76806641,11.5 7.5,11.5 C7.22385763,11.5 6.90359497,11.3071899 6.77340698,11.046814 L6.72659302,10.953186 C6.60144915,10.7028983 6.65820312,10.3417969 6.85268784,10.1473122 L6.64731216,10.3526878 C6.84209628,10.1579037 7.15820312,10.1582031 7.35268784,10.3526878 L7.14731216,10.1473122 C7.34209628,10.3420963 7.65820312,10.3417969 7.85268784,10.1473122 L7.64731216,10.3526878 C7.84209628,10.1579037 8.19281006,9.90359497 8.45318604,9.77340698 L8.54681396,9.72659302 C8.7971017,9.60144915 8.76806641,9.5 8.5,9.5 C8.22385763,9.5 7.80718994,9.40359497 7.54681396,9.27340698 L7.45318604,9.22659302 C7.2028983,9.10144915 6.84375,8.84375 6.65024853,8.65024853 L6.34975147,8.34975147 C6.15658907,8.15658907 5.90359497,7.80718994 5.77340698,7.54681396 L5.72659302,7.45318604 C5.60144915,7.2028983 5.5,6.78596497 5.5,6.49531555 L5.5,5.50468445 C5.5,5.22595492 5.63842773,4.81542969 5.80354738,4.59527016 L6.69645262,3.40472984 C6.86409721,3.18120372 7.05350876,3.21403503 7.12103605,3.48414421 L7.37896395,4.51585579 C7.44581031,4.78324125 7.59640503,5.19281006 7.72659302,5.45318604 L7.77340698,5.54681396 C7.89855085,5.7971017 8.15820312,6.15820313 8.35268784,6.35268784 L8.14731216,6.14731216 C8.34209628,6.34209628 8.34179688,6.65820313 8.14731216,6.85268784 L8.35268784,6.64731216 C8.15790372,6.84209628 8.19281006,7.09640503 8.45318604,7.22659302 L8.54681396,7.27340698 C8.7971017,7.39855085 9,7.27340698 9,7 L9,7.5 C9,7.22385763 9.09640503,6.80718994 9.22659302,6.54681396 L9.27340698,6.45318604 C9.39855085,6.2028983 9.34375,5.84375 9.15024853,5.65024853 L8.14731216,4.64731216 L8.35268784,4.85268784 C8.15790372,4.65790372 8.19281006,4.40359497 8.45318604,4.27340698 L8.54681396,4.22659302 C8.7971017,4.10144915 9.15625,4.15625 9.34975147,4.34975147 L10.3526878,5.35268784 L10.1473122,5.14731216 Z M9.34975147,3.34975147 C9.15658907,3.15658907 9.20856857,2.93047714 9.47460938,2.84179688 L10.0253906,2.65820313 C10.2875101,2.57082995 10.7085686,2.56952286 10.9746094,2.65820313 L11.5253906,2.84179688 C11.7875101,2.92917005 11.84375,3.15625 11.6502485,3.34975147 L11.3497515,3.65024853 C11.1565891,3.84341093 10.7680664,4 10.5,4 C10.2238576,4 9.84375,3.84375 9.65024853,3.65024853 L9.34975147,3.34975147 Z"
                  id="Combined-Shape" fill="url(#linearGradient-2)"></path>
            <path d="M9.5,9.00574269 C9.5,9.27871347 9.57596016,9.29143143 9.68457031,9.02539062 C9.68457031,9.02539062 10,8 10.5,8 C11,8 11.3225133,9.04180002 11.3225133,9.04180002 C11.4205365,9.29485688 11.5,9.27817278 11.5,8.99464673 L11.5,8.5 C11.5,7.67157288 11.0522847,7 10.5,7 C9.94771525,7 9.5,7.67157288 9.5,8.5 L9.5,9.00574269 Z"
                  id="Oval-205" fill="#215F90"></path>
        </g>
    </g>
</svg>
